{
	"info": {
		"_postman_id": "6cb55b32-e255-493d-b664-093c7422afd9",
		"name": "Sprint 5 - US003_AddPersonToGroupControllerREST",
		"schema": "https://schema.getpostman.com/json/collection/v2.1.0/collection.json"
	},
	"item": [
		{
			"name": "http://localhost:8080/addPersonToGroup",
			"event": [
				{
					"listen": "test",
					"script": {
						"id": "31663243-31db-4be3-97f9-4f69d58e44e2",
						"exec": [
							"pm.test(\"Response Body\", function () {",
							"    var jsonData = pm.response.json();",
							"    pm.expect(jsonData.result).to.eql(true);",
							"    pm.expect(jsonData.msg).to.eql(\"Person added\");",
							"});",
							"pm.test(\"Status code is 201\", function () {",
							"    pm.response.to.have.status(201);",
							"});",
							"pm.test(\"Response time is less than 200ms\", function () {",
							"    pm.expect(pm.response.responseTime).to.be.below(200);",
							"});"
						],
						"type": "text/javascript"
					}
				}
			],
			"request": {
				"method": "POST",
				"header": [],
				"body": {
					"mode": "raw",
					"raw": "{\n\t\"email\" : \"joao@gmail.com\", \n\t\"denomination\" : \"Sunday Runners\"\n}",
					"options": {
						"raw": {
							"language": "json"
						}
					}
				},
				"url": {
					"raw": "http://localhost:8080/addPersonToGroup",
					"protocol": "http",
					"host": [
						"localhost"
					],
					"port": "8080",
					"path": [
						"addPersonToGroup"
					]
				}
			},
			"response": []
		},
		{
			"name": "http://localhost:8080/addPersonToGroup",
			"event": [
				{
					"listen": "test",
					"script": {
						"id": "3f53b9cb-a9c2-4034-aa02-941ed2eb6657",
						"exec": [
							"pm.test(\"Response Body\", function () {",
							"    var jsonData = pm.response.json();",
							"    pm.expect(jsonData.result).to.eql(false);",
							"    pm.expect(jsonData.msg).to.eql(\"Person does not exist\");",
							"});",
							"pm.test(\"Status code is 201\", function () {",
							"    pm.response.to.have.status(201);",
							"});",
							"pm.test(\"Response time is less than 200ms\", function () {",
							"    pm.expect(pm.response.responseTime).to.be.below(200);",
							"});"
						],
						"type": "text/javascript"
					}
				}
			],
			"request": {
				"method": "POST",
				"header": [],
				"body": {
					"mode": "raw",
					"raw": "{\n\t\"email\" : \"crispim@gmail.com\", \n\t\"denomination\" : \"Sunday Runners\"\n}",
					"options": {
						"raw": {
							"language": "json"
						}
					}
				},
				"url": {
					"raw": "http://localhost:8080/addPersonToGroup",
					"protocol": "http",
					"host": [
						"localhost"
					],
					"port": "8080",
					"path": [
						"addPersonToGroup"
					]
				}
			},
			"response": []
		},
		{
			"name": "http://localhost:8080/addPersonToGroup",
			"event": [
				{
					"listen": "test",
					"script": {
						"id": "f447daba-0dbd-4790-9221-78ef11244067",
						"exec": [
							"pm.test(\"Response Body\", function () {",
							"    var jsonData = pm.response.json();",
							"    pm.expect(jsonData.result).to.eql(false);",
							"    pm.expect(jsonData.msg).to.eql(\"Group does not exist\");",
							"});",
							"pm.test(\"Status code is 201\", function () {",
							"    pm.response.to.have.status(201);",
							"});",
							"pm.test(\"Response time is less than 200ms\", function () {",
							"    pm.expect(pm.response.responseTime).to.be.below(200);",
							"});"
						],
						"type": "text/javascript"
					}
				}
			],
			"request": {
				"method": "POST",
				"header": [],
				"body": {
					"mode": "raw",
					"raw": "{\n\t\"email\" : \"alexandre@gmail.com\", \n\t\"denomination\" : \"Sunday\"\n}",
					"options": {
						"raw": {
							"language": "json"
						}
					}
				},
				"url": {
					"raw": "http://localhost:8080/addPersonToGroup",
					"protocol": "http",
					"host": [
						"localhost"
					],
					"port": "8080",
					"path": [
						"addPersonToGroup"
					]
				}
			},
			"response": []
		},
		{
			"name": "http://localhost:8080/addPersonToGroup",
			"event": [
				{
					"listen": "test",
					"script": {
						"id": "86515d99-e509-4f9d-b9e5-950b7dd8610a",
						"exec": [
							"pm.test(\"Response Body\", function () {",
							"    var jsonData = pm.response.json();",
							"    pm.expect(jsonData.result).to.eql(false);",
							"    pm.expect(jsonData.msg).to.eql(\"Person is already member\");",
							"});",
							"pm.test(\"Status code is 201\", function () {",
							"    pm.response.to.have.status(201);",
							"});",
							"pm.test(\"Response time is less than 200ms\", function () {",
							"    pm.expect(pm.response.responseTime).to.be.below(200);",
							"});"
						],
						"type": "text/javascript"
					}
				}
			],
			"request": {
				"method": "POST",
				"header": [],
				"body": {
					"mode": "raw",
					"raw": "{\n\t\"email\" : \"paulo@gmail.com\", \n\t\"denomination\" : \"Sunday Runners\"\n}",
					"options": {
						"raw": {
							"language": "json"
						}
					}
				},
				"url": {
					"raw": "http://localhost:8080/addPersonToGroup",
					"protocol": "http",
					"host": [
						"localhost"
					],
					"port": "8080",
					"path": [
						"addPersonToGroup"
					]
				}
			},
			"response": []
		}
	],
	"protocolProfileBehavior": {}
}