@startuml
!define LIGHTBLUE
!includeurl https://raw.githubusercontent.com/Drakemor/RedDress-PlantUML/master/style.puml
hide footbox
participant ":testController_US012"
create "ledger:Ledger"
"groupHenriqueSalary:Group" [#blue]-> "ledger:Ledger": create
'box "Users" #LightBlue
create "controller_us012:Controller_US012"
":testController_US012" [#blue]-> "controller_us012:Controller_US012": create
participant "personHenrique:Person"
participant "groupHenriqueSalary:Group"
participant "ledger:Ledger"
'participant "categorySalary:Category"
'participant "accountDebit:Account"
'participant "accountCredit:Account"
'participant "accountCredit:Transaction"
'participant "accountCredit:Transaction"
'end box
'participant "categories:CategoryList"
'participant "category:Category"
'"controller_us018:Controller_US012" [#blue]-> "categories:CategoryList": create
":testController_US012" [#blue]-> "controller_us012:Controller_US012":List<transaction> <b>result</b> = getGroupRecordsBetweenTwoDates\n(groupHenriqueSalary,personHenrique, dateOfBeggining, dateOfEnding)
"controller_us012:Controller_US012" [#blue]-> "groupHenriqueSalary:Group": getRecordsBetweenTwoDates\n(groupHenriqueSalary, dateOfBeggining, dateOfEnding)
"groupHenriqueSalary:Group" [#blue]-> "ledger:Ledger": getRecordsBetweenTwoDates\n(LocalDate dateOfBeginning, LocalDate dateOfEnding)
'create "category:Category"
'"categories:CategoryList" [#blue]-> "category:Category": create
'participant "ac1:Account"
'        "controller_us012:Controller_US012" [#blue]-> "denominationFood:CategoryList": personJoana=ew/create
'participant "denominationFood:CategoryList"
'
'create "ac1:Account"
'        "controller_us012:Controller_US012" [#blue]-> "ac1:Account": new/create
'        "controller_us012:Controller_US012" [#blue]-> "denominationFood:CategoryList": ADDACOUNT
'"controller_us012:Controller_US012" -> "controller_us012:Controller_US012" : addCategory
'"categories:CategoryList" -> "categories:CategoryList" : add(category)
participant "expectedRegists:ArrayList<transaction>"
":testController_US012" [#blue]-> ":testController_US012":  assertEquals(expectedRegists,<b>result</b>);
'"controller_us012:Controller_US012" [#blue]--> ":testController_US012":
'"expectedCategoryList:CategoryList" [#blue]--> ":testController_US012": AssertTrue()
'return AssertTrue()
@enduml