@startuml

scale 1.35

'__Layout
skinparam class {
BackgroundColor #F2F2F2
ArrowColor #404040
BorderColor #7F7F7F
}

skinparam classAttributeIconSize 0

left to right direction

'__Title
title <b>"Personal Finance Management"</b>\nDesign Class Diagram US005_1CreateGroupCategory

'__Design classes

class US005_1CreateGroupCategoryController {
+ createCategoryAsPersonInCharge()
}

class CreateGroupCategoryDTOAssembler {
+ createDTOFromPrimitiveTypes()
}

class CreateGroupCategoryDTO {
- personEmail : String
- groupDenomination : String
- categoryDenomination : String
+ getCategoryDenomination()
+ getGroupDenomination()
+ getPersonEmail()
}

class US005_1CreateGroupCategoryService {
- categoryRepository : ICategoryRepository
- groupRepository : IGroupRepository
+ createCategoryAsPersonInCharge()
}

interface ICategoryRepository {
}

class CategoryRepository {
- categories : List<Category>
+ existsCategory()
+ saveCategory()
}

package "Aggregate Category" <<Folder>> {
class Category {
- categoryID : CategoryID
+ CreateCategoryGroup()
(...)
}
}

interface IGroupRepository {
}

class GroupRepository {
- groupRepo : List<Group>
+ findGroupByGroupID()
}

package "Aggregate Group" <<Folder>> {
class Group {
- groupID : GroupID
+ isPersonInCharge()
+ checkIfGroupHasCategory()
+ addCategory()
(...)
}
}

class BooleanDTOAssembler {
+ createDTOFromPrimitiveTypes()
}

class BooleanDTO {
- result : String
- msg : String
+ getResult()
+ getMsg()
+ setResult()
+ setMsg()
}

'__Associations
'__Dependency relationships

US005_1CreateGroupCategoryController ..> CreateGroupCategoryDTOAssembler
CreateGroupCategoryDTOAssembler --> CreateGroupCategoryDTO
US005_1CreateGroupCategoryController ..> US005_1CreateGroupCategoryService
US005_1CreateGroupCategoryService ..> ICategoryRepository
US005_1CreateGroupCategoryService ..> IGroupRepository
ICategoryRepository <|.. CategoryRepository
IGroupRepository <|.. GroupRepository
CategoryRepository "1" *-- "*" Category
GroupRepository "1" *-- "*" Group
US005_1CreateGroupCategoryService --> BooleanDTOAssembler
BooleanDTOAssembler --> BooleanDTO


@enduml