@startuml
!define LIGHTBLUE
!includeurl https://raw.githubusercontent.com/Drakemor/RedDress-PlantUML/master/style.puml

'__Title
title <b>"Personal Finance Management"</b>\nSequence Diagram US003AddPersonToGroupControllerCLI
hide footbox


participant ":testController_US03"

create "uS003AddPersonToGroupController : \nUS003AddPersonToGroupController"
activate ":testController_US03" #34b7eb
":testController_US03" [#blue]-->  "uS003AddPersonToGroupController : \nUS003AddPersonToGroupController" : create(us003AddPersonToGroupService)

":testController_US03" [#blue]-> "uS003AddPersonToGroupController : \nUS003AddPersonToGroupController": addPersonToGroup\n(email, groupDenomination)
activate "uS003AddPersonToGroupController : \nUS003AddPersonToGroupController" #34b7eb

participant "AddPersonToGroupDTOAssembler"

"uS003AddPersonToGroupController : \nUS003AddPersonToGroupController" [#blue]->  "AddPersonToGroupDTOAssembler" : createDTOFromPrimitiveTypes\n(email, groupDenomination)
activate "AddPersonToGroupDTOAssembler" #34b7eb
create "addPersonToGroupDTO : \nAddPersonToGroupDTO"
"AddPersonToGroupDTOAssembler" [#blue]-->  "addPersonToGroupDTO : \nAddPersonToGroupDTO" : create(email, groupDenomination)
return <b>addPersonToGroupDTO</b>
deactivate "AddPersonToGroupDTOAssembler"


"uS003AddPersonToGroupController : \nUS003AddPersonToGroupController" [#blue]->  "us003AddPersonToGroupService : \nUS003AddPersonToGroupService" : addPersonToGroup(addPersonToGroupDTO)

participant "PersonID"

activate "us003AddPersonToGroupService : \nUS003AddPersonToGroupService" #34b7eb

"us003AddPersonToGroupService : \nUS003AddPersonToGroupService" [#blue]->  "PersonID" : createPersonID(personEmailFromDTO)
activate "PersonID" #34b7eb
create "personID : \nPersonID"
"PersonID" [#blue]-->  "personID : \nPersonID" : create\n(personEmailFromDTO)
return <b>personID</b>
deactivate "personID : \nPersonID"

"us003AddPersonToGroupService : \nUS003AddPersonToGroupService" [#blue]->  "addPersonToGroupDTO : \nAddPersonToGroupDTO" : getEmail()
activate "addPersonToGroupDTO : \nAddPersonToGroupDTO" #34b7eb
return String <b>emailFromDTO</b>
deactivate "addPersonToGroupDTO : \nAddPersonToGroupDTO"


participant "GroupID"


"us003AddPersonToGroupService : \nUS003AddPersonToGroupService" [#blue]->  "addPersonToGroupDTO : \nAddPersonToGroupDTO" : getGroupDenomination()
activate "addPersonToGroupDTO : \nAddPersonToGroupDTO" #34b7eb
return String <b>groupDenominationFromDTO</b>
deactivate "addPersonToGroupDTO : \nAddPersonToGroupDTO"

"us003AddPersonToGroupService : \nUS003AddPersonToGroupService" [#blue]->  "GroupID" : createGroupID(groupDenominationFromDTO)
activate "GroupID" #34b7eb
create "groupID : \nGroupID"
"GroupID" [#blue]-->  "groupID : \nGroupID" : create\n(groupDenominationFromDTO)
return <b>groupID</b>
deactivate "groupID : \nGroupID"


"us003AddPersonToGroupService : \nUS003AddPersonToGroupService" [#blue]-> "personRepository : PersonRepository" : existPerson(personID)
activate "personRepository : PersonRepository" #34b7eb
return boolean <b>personExists</b>


participant "groupRepository : GroupRepository"
participant "group: Group"

"us003AddPersonToGroupService : \nUS003AddPersonToGroupService" [#blue]-> "groupRepository : GroupRepository" : existGroup(groupID)
activate "groupRepository : GroupRepository" #34b7eb
return boolean <b>groupExists</b>

"us003AddPersonToGroupService : \nUS003AddPersonToGroupService" [#blue]-> "groupRepository : GroupRepository" : findGroupByID(groupID)
activate "groupRepository : GroupRepository" #34b7eb
return Group <b>group</b>

"us003AddPersonToGroupService : \nUS003AddPersonToGroupService" [#blue]-> "group: Group": isPersonAlreadyMember(personID)
activate "group: Group" #34b7eb
return boolean <b>isPersonAlreadyMember</b>



participant "BooleanDTOAssembler"

"us003AddPersonToGroupService : \nUS003AddPersonToGroupService" [#blue]->  "BooleanDTOAssembler" : createDTOFromPrimitiveTypes(addResult, SUCCESS)
activate "BooleanDTOAssembler" #34b7eb
create "booleanDTO : \nBooleanDTO"
"BooleanDTOAssembler" [#blue]-->  "booleanDTO : \nBooleanDTO" : create\n(addResult, SUCCESS)
return <b>booleanDTO</b>
deactivate "booleanDTO : \nBooleanDTO"

participant "expectedBooleanDTO"


"uS003AddPersonToGroupController : \nUS003AddPersonToGroupController" <-- "us003AddPersonToGroupService : \nUS003AddPersonToGroupService": <b>booleanDTO</b>
deactivate "us003AddPersonToGroupService : \nUS003AddPersonToGroupService"

":testController_US03" <-- "uS003AddPersonToGroupController : \nUS003AddPersonToGroupController": <b>booleanDTO</b>
deactivate "uS003AddPersonToGroupController : \nUS003AddPersonToGroupController"

":testController_US03" [#blue]-> ":testController_US03": assertEquals(expectedBooleanDTO, booleanDTO)


@enduml