{
	"info": {
		"_postman_id": "1ed6abee-a6d5-418a-b2f2-cecba19b1449",
		"name": "Sprint 7 - US002_1CreateGroup",
		"schema": "https://schema.getpostman.com/json/collection/v2.1.0/collection.json"
	},
	"item": [
		{
			"name": "createGroup_Success (201 -> CREATED)",
			"event": [
				{
					"listen": "test",
					"script": {
						"id": "15a4465d-41c0-4ec7-8d74-68d773e21473",
						"exec": [
							"    //Response Schema",
							"",
							"const schema = {",
							"    \"type\": \"object\",",
							"    ",
							"    \"properties\": {",
							"        ",
							"        \"denomination\": { \"type\" : \"string\"},",
							"        \"description\": {\"type\" : \"string\"},",
							"        \"dateOfCreation\": {\"type\" : \"string\"},",
							"        ",
							"        \"_links\":{",
							"            \"type\": \"object\",",
							"            ",
							"            \"properties\": {",
							"                \"self\": {",
							"                    \"type\": \"object\",",
							"                    \"properties\": {",
							"                        \"href\": { \"type\": \"string\"}",
							"                        ",
							"                    },",
							"                    \"required\": [\"href\"]",
							"                }",
							"            }, \"required\": [\"self\"]",
							"            ",
							"        }",
							"    }, \"required\": [\"denomination\", \"description\", \"dateOfCreation\", \"_links\"]",
							"};",
							"",
							"",
							"    //Test Response Schema ",
							"",
							"pm.test('Schema is valid', () => {",
							"    ",
							"  pm.response.to.have.jsonSchema(schema);",
							"  ",
							"});",
							"",
							"    //Test Response Body",
							"",
							"pm.test(\"Response Body\", () => {",
							"    ",
							"  const moment = require('moment')",
							"  let dateNow = moment().format(\"YYYY-MM-DD\")",
							"  ",
							"  var jsonData = pm.response.json();",
							"    ",
							"    ",
							"   pm.expect(jsonData.denomination).to.eql(\"Old Friends\");",
							"   pm.expect(jsonData.description).to.eql(\"Old friends from school\");",
							"   pm.expect(jsonData.dateOfCreation).to.eql(dateNow);",
							"    ",
							"}); ",
							""
						],
						"type": "text/javascript"
					}
				}
			],
			"request": {
				"method": "POST",
				"header": [],
				"body": {
					"mode": "raw",
					"raw": "{\n    \"email\": \"rita@gmail.com\",\n    \"denomination\": \"Old Friends\",\n    \"description\": \"Old friends from school\"\n}",
					"options": {
						"raw": {
							"language": "json"
						}
					}
				},
				"url": {
					"raw": "localhost:8080/groups/",
					"host": [
						"localhost"
					],
					"port": "8080",
					"path": [
						"groups",
						""
					]
				}
			},
			"response": []
		},
		{
			"name": "createGroup_CanNotAddGroupTwoTimes (422 -> UNPROCESSABLE_ENTITY)",
			"event": [
				{
					"listen": "test",
					"script": {
						"id": "7eba2295-eb69-44f8-990c-84505e4a5ee5",
						"exec": [
							"const schema = {",
							"    \"type\": \"object\",",
							"    \"properties\": {",
							"        \"status\": { \"type\": \"string\" },",
							"        \"message\": { \"type\": \"string\" },",
							"        \"errors\": {",
							"            \"type\": \"array\",",
							"            \"minItems\": 1,",
							"            \"maxItems\": 1,",
							"            \"items\": {",
							"                \"type\": \"string\"",
							"            }",
							"        ",
							"    }}, \"required\": [\"status\", \"message\", \"errors\"]",
							"};",
							"",
							"pm.test(\"Validate schema\", () => {",
							"    pm.response.to.have.jsonSchema(schema);",
							"});",
							"",
							"",
							"pm.test(\"Response Body\", function () {",
							"    var jsonData = pm.response.json();",
							"    pm.expect(jsonData.status).to.eql(\"UNPROCESSABLE_ENTITY\");",
							"    pm.expect(jsonData.message).to.eql(\"Group already exist\");",
							"    ",
							"    pm.expect(jsonData.errors[0]).to.eql(\"Status Code: 422, Exception: InvalidArgumentsBusinessException\");",
							"});"
						],
						"type": "text/javascript"
					}
				}
			],
			"request": {
				"method": "POST",
				"header": [],
				"body": {
					"mode": "raw",
					"raw": "{\n    \"email\": \"rita@gmail.com\",\n    \"denomination\": \"Old Friends\",\n    \"description\": \"Old friends from school\"\n}",
					"options": {
						"raw": {
							"language": "json"
						}
					}
				},
				"url": {
					"raw": "localhost:8080/groups/",
					"host": [
						"localhost"
					],
					"port": "8080",
					"path": [
						"groups",
						""
					]
				}
			},
			"response": []
		},
		{
			"name": "createGroup_GroupAlreadyExisteOnRepository (422 -> UNPROCESSABLE_ENTITY)",
			"event": [
				{
					"listen": "test",
					"script": {
						"id": "acc9dfb1-087c-4e65-95ea-3e67866e5d0b",
						"exec": [
							"const schema = {",
							"    \"type\": \"object\",",
							"    \"properties\": {",
							"        \"status\": { \"type\": \"string\" },",
							"        \"message\": { \"type\": \"string\" },",
							"        \"errors\": {",
							"            \"type\": \"array\",",
							"            \"minItems\": 1,",
							"            \"maxItems\": 1,",
							"            \"items\": {",
							"                \"type\": \"string\"",
							"            }",
							"        ",
							"    }}, \"required\": [\"status\", \"message\", \"errors\"]",
							"};",
							"",
							"pm.test(\"Validate schema\", () => {",
							"    pm.response.to.have.jsonSchema(schema);",
							"});",
							"",
							"",
							"pm.test(\"Response Body\", function () {",
							"    var jsonData = pm.response.json();",
							"    pm.expect(jsonData.status).to.eql(\"UNPROCESSABLE_ENTITY\");",
							"    pm.expect(jsonData.message).to.eql(\"Group already exist\");",
							"    ",
							"    pm.expect(jsonData.errors[0]).to.eql(\"Status Code: 422, Exception: InvalidArgumentsBusinessException\");",
							"});"
						],
						"type": "text/javascript"
					}
				}
			],
			"request": {
				"method": "POST",
				"header": [],
				"body": {
					"mode": "raw",
					"raw": "{\n    \"email\": \"joao@gmail.com\",\n    \"denomination\": \"Silva Family\",\n    \"description\": \"All members of Silva Family\"\n}",
					"options": {
						"raw": {
							"language": "json"
						}
					}
				},
				"url": {
					"raw": "localhost:8080/groups/",
					"host": [
						"localhost"
					],
					"port": "8080",
					"path": [
						"groups",
						""
					]
				}
			},
			"response": []
		},
		{
			"name": "createGroup_PersonDoesNotExist (404 -> NOT_FOUND)",
			"event": [
				{
					"listen": "test",
					"script": {
						"id": "e52f2d94-c19d-46b0-b6e1-a5cd050ef42c",
						"exec": [
							"const schema = {",
							"    \"type\": \"object\",",
							"    \"properties\": {",
							"        \"status\": { \"type\": \"string\" },",
							"        \"message\": { \"type\": \"string\" },",
							"        \"errors\": {",
							"            \"type\": \"array\",",
							"            \"minItems\": 1,",
							"            \"maxItems\": 1,",
							"            \"items\": {",
							"                \"type\": \"string\"",
							"            }",
							"        ",
							"    }}, \"required\": [\"status\", \"message\", \"errors\"]",
							"};",
							"",
							"pm.test(\"Validate schema\", () => {",
							"    pm.response.to.have.jsonSchema(schema);",
							"});",
							"",
							"",
							"pm.test(\"Response Body\", function () {",
							"    var jsonData = pm.response.json();",
							"    pm.expect(jsonData.status).to.eql(\"NOT_FOUND\");",
							"    pm.expect(jsonData.message).to.eql(\"Person does not exist\");",
							"    ",
							"    pm.expect(jsonData.errors[0]).to.eql(\"Status Code: 404, Exception: NotFoundArgumentsBusinessException\");",
							"});"
						],
						"type": "text/javascript"
					}
				}
			],
			"request": {
				"method": "POST",
				"header": [],
				"body": {
					"mode": "raw",
					"raw": "{\n    \"email\": \"valdemar@gmail.com\",\n    \"denomination\": \"do Vale Family\",\n    \"description\": \"All members of do Vale Family\"\n}",
					"options": {
						"raw": {
							"language": "json"
						}
					}
				},
				"url": {
					"raw": "localhost:8080/groups/",
					"host": [
						"localhost"
					],
					"port": "8080",
					"path": [
						"groups",
						""
					]
				}
			},
			"response": []
		},
		{
			"name": "getGroupAdmins_Success (200 -> OK)",
			"event": [
				{
					"listen": "test",
					"script": {
						"id": "8637e85d-6a91-42e8-bbe4-a4740c237b6e",
						"exec": [
							"    //Response Schema",
							"",
							"const schema = {",
							"    \"type\": \"object\",",
							"    ",
							"    \"properties\": {",
							"",
							"        \"peopleInCharge\": {",
							"            \"type\": \"array\",",
							"            \"minItems\": 1,",
							"            \"maxItems\": 10,",
							"            \"items\": {",
							"                \"type\": \"string\",",
							"            }",
							"        }",
							"    }, \"required\": [\"peopleInCharge\"]",
							"        ",
							"};",
							"",
							"    //Test Response Schema ",
							"",
							"pm.test(\"Validate schema\", () => {",
							"    ",
							"pm.response.to.have.jsonSchema(schema);",
							"",
							"});",
							"",
							"",
							"    //Test Response Body ",
							"    ",
							"pm.test(\"Response Body\", () => {",
							"",
							"  var jsonData = pm.response.json();",
							"    ",
							"pm.expect(jsonData.peopleInCharge[0]).to.eql(\"joao@gmail.com\")",
							"pm.expect(jsonData.peopleInCharge[1]).to.eql(\"maria@gmail.com\");",
							"    ",
							"}); "
						],
						"type": "text/javascript"
					}
				}
			],
			"request": {
				"method": "GET",
				"header": [],
				"url": {
					"raw": "localhost:8080/groups/Silva%20Family/admins",
					"host": [
						"localhost"
					],
					"port": "8080",
					"path": [
						"groups",
						"Silva%20Family",
						"admins"
					]
				}
			},
			"response": []
		},
		{
			"name": "getGroupMembers_Success (200 -> OK)",
			"event": [
				{
					"listen": "test",
					"script": {
						"id": "756a59a2-7e87-4174-b0a9-06a64a388413",
						"exec": [
							"    //Response Schema",
							"",
							"const schema = {",
							"    \"type\": \"object\",",
							"    ",
							"    \"properties\": {",
							"",
							"        \"members\": {",
							"            \"type\": \"array\",",
							"            \"minItems\": 0,",
							"            \"maxItems\": 10,",
							"            \"items\": {",
							"                \"type\": \"string\",",
							"            }",
							"        }",
							"    }, \"required\": [\"members\"]",
							"        ",
							"};",
							"",
							"    //Test Response Schema ",
							"",
							"pm.test(\"Validate schema\", () => {",
							"    ",
							"pm.response.to.have.jsonSchema(schema);",
							"",
							"});",
							"",
							"",
							"    //Test Response Body ",
							"    ",
							"pm.test(\"Response Body\", () => {",
							"",
							"  var jsonData = pm.response.json();",
							"    ",
							"pm.expect(jsonData.members[0]).to.eql(\"rui@gmail.com\")",
							"pm.expect(jsonData.members[1]).to.eql(\"henrique@gmail.com\");",
							"    ",
							"}); "
						],
						"type": "text/javascript"
					}
				}
			],
			"request": {
				"method": "GET",
				"header": [],
				"url": {
					"raw": "localhost:8080/groups/Silva%20Family/members",
					"host": [
						"localhost"
					],
					"port": "8080",
					"path": [
						"groups",
						"Silva%20Family",
						"members"
					]
				}
			},
			"response": []
		},
		{
			"name": "getGroupAccounts_Success (200 -> OK)",
			"event": [
				{
					"listen": "test",
					"script": {
						"id": "2ee3515f-c21b-4749-a88b-8b4b6ebdcdd6",
						"exec": [
							"    //Response Schema",
							"",
							"const schema = {",
							"    \"type\": \"object\",",
							"    ",
							"    \"properties\": {",
							"",
							"        \"accounts\": {",
							"            \"type\": \"array\",",
							"            \"minItems\": 0,",
							"            \"maxItems\": 50,",
							"            \"items\": {",
							"                \"type\": \"string\",",
							"            },",
							"        }",
							"",
							"    }, \"required\": [\"accounts\"]",
							"    ",
							"};",
							"",
							"    //Test Response Schema ",
							"",
							"pm.test(\"Validate schema\", () => {",
							"    ",
							"pm.response.to.have.jsonSchema(schema);",
							"",
							"});",
							"",
							"    //Test Response Body ",
							"    ",
							"pm.test(\"Response Body\", () => {",
							"",
							"  var jsonData = pm.response.json();",
							"    ",
							"pm.expect(jsonData.accounts[0]).to.eql(\"Company\")",
							"pm.expect(jsonData.accounts[1]).to.eql(\"Bank Account\");",
							"pm.expect(jsonData.accounts[6]).to.eql(\"Streaming Services\");",
							"    ",
							"}); "
						],
						"type": "text/javascript"
					}
				}
			],
			"request": {
				"method": "GET",
				"header": [],
				"url": {
					"raw": "localhost:8080/groups/Silva%20Family/accounts",
					"host": [
						"localhost"
					],
					"port": "8080",
					"path": [
						"groups",
						"Silva%20Family",
						"accounts"
					]
				}
			},
			"response": []
		},
		{
			"name": "getGroupCategories_Success (200 -> OK)",
			"event": [
				{
					"listen": "test",
					"script": {
						"id": "918d48db-60b6-47f1-bfbc-8e145cff87f7",
						"exec": [
							"    //Response Schema",
							"",
							"const schema = {",
							"    \"type\": \"object\",",
							"    ",
							"    \"properties\": {",
							"",
							"        \"categories\": {",
							"            \"type\": \"array\",",
							"            \"minItems\": 0,",
							"            \"maxItems\": 50,",
							"            \"items\": {",
							"                \"type\": \"string\",",
							"            },",
							"        }",
							"",
							"    }, \"required\": [\"categories\"]",
							"    ",
							"};",
							"",
							"    //Test Response Schema ",
							"",
							"pm.test(\"Validate schema\", () => {",
							"    ",
							"pm.response.to.have.jsonSchema(schema);",
							"",
							"});",
							"",
							"",
							"    //Test Response Body ",
							"    ",
							"pm.test(\"Response Body\", () => {",
							"",
							"  var jsonData = pm.response.json();",
							"    ",
							"pm.expect(jsonData.categories[0]).to.eql(\"Salary\")",
							"pm.expect(jsonData.categories[1]).to.eql(\"Draw Money\");",
							"pm.expect(jsonData.categories[2]).to.eql(\"IRS\");",
							"pm.expect(jsonData.categories[3]).to.eql(\"Food\");",
							"pm.expect(jsonData.categories[4]).to.eql(\"Water Bill\");",
							"pm.expect(jsonData.categories[5]).to.eql(\"Netflix\");",
							"    ",
							"}); "
						],
						"type": "text/javascript"
					}
				}
			],
			"request": {
				"method": "GET",
				"header": [],
				"url": {
					"raw": "localhost:8080/groups/Silva%20Family/categories",
					"host": [
						"localhost"
					],
					"port": "8080",
					"path": [
						"groups",
						"Silva%20Family",
						"categories"
					]
				}
			},
			"response": []
		},
		{
			"name": "createGroup -> 405 METHOD NOT ALLOWED (GET)",
			"event": [
				{
					"listen": "test",
					"script": {
						"id": "15a4465d-41c0-4ec7-8d74-68d773e21473",
						"exec": [
							"    //Response Schema",
							"",
							"const schema = {",
							"    \"type\": \"object\",",
							"    \"properties\": {",
							"        \"status\": { \"type\": \"string\" },",
							"        \"message\": { \"type\": \"string\" },",
							"        \"errors\": {",
							"            \"type\": \"array\",",
							"            \"minItems\": 1,",
							"            \"maxItems\": 1,",
							"            \"items\": {",
							"                \"type\": \"string\"",
							"            }",
							"",
							"        }",
							"    }, \"required\": [\"status\", \"message\", \"errors\"]",
							"};",
							"",
							"",
							"    //Test Response Schema ",
							"",
							"pm.test('Schema is valid', () => {",
							"    ",
							"  pm.response.to.have.jsonSchema(schema);",
							"  ",
							"});",
							"",
							"    //Test Response Body",
							"",
							"pm.test(\"Response Body\", function () {",
							"    var jsonData = pm.response.json();",
							"    pm.expect(jsonData.status).to.eql(\"METHOD_NOT_ALLOWED\");",
							"    pm.expect(jsonData.message).to.eql(\"Request method 'GET' not supported\");",
							"",
							"    pm.expect(jsonData.errors[0]).to.eql(\"GET method is not supported for this request. Supported methods are POST \");",
							"});",
							""
						],
						"type": "text/javascript"
					}
				}
			],
			"protocolProfileBehavior": {
				"disableBodyPruning": true
			},
			"request": {
				"method": "GET",
				"header": [],
				"body": {
					"mode": "raw",
					"raw": "{\n    \"email\": \"rita@gmail.com\",\n    \"denomination\": \"Old Friends\",\n    \"description\": \"Old friends from school\"\n}",
					"options": {
						"raw": {
							"language": "json"
						}
					}
				},
				"url": {
					"raw": "localhost:8080/groups/",
					"host": [
						"localhost"
					],
					"port": "8080",
					"path": [
						"groups",
						""
					]
				}
			},
			"response": []
		},
		{
			"name": "createGroup -> 400 BAD REQUEST (JSON)",
			"event": [
				{
					"listen": "test",
					"script": {
						"id": "15a4465d-41c0-4ec7-8d74-68d773e21473",
						"exec": [
							"//Response Schema",
							"",
							"const schema = {",
							"    \"type\": \"object\",",
							"    \"properties\": {",
							"        \"status\": { \"type\": \"string\" },",
							"        \"message\": { \"type\": \"string\" },",
							"        \"errors\": {",
							"            \"type\": \"array\",",
							"            \"minItems\": 1,",
							"            \"maxItems\": 1,",
							"            \"items\": {",
							"                \"type\": \"string\"",
							"            }",
							"",
							"        }",
							"    }, \"required\": [\"status\", \"message\", \"errors\"]",
							"};",
							"",
							"",
							"//Test Response Schema ",
							"",
							"pm.test('Schema is valid', () => {",
							"",
							"    pm.response.to.have.jsonSchema(schema);",
							"",
							"});",
							"",
							"//Test Response Body",
							"",
							"pm.test(\"Response Body\", function () {",
							"    var jsonData = pm.response.json();",
							"    pm.expect(jsonData.status).to.eql(\"BAD_REQUEST\");",
							"    pm.expect(jsonData.message).to.eql(\"Please verify the information sent.\");",
							"",
							"    pm.expect(jsonData.errors[0]).to.eql(\"Malformed JSON request - verify on line: 3, column: 25\");",
							"});",
							""
						],
						"type": "text/javascript"
					}
				}
			],
			"request": {
				"method": "POST",
				"header": [],
				"body": {
					"mode": "raw",
					"raw": "{\n    \"email\": \"rita@gmail.com\",\n    \"denomination\": Old Friends,\n    \"description\": \"Old friends from school\"\n}",
					"options": {
						"raw": {
							"language": "json"
						}
					}
				},
				"url": {
					"raw": "localhost:8080/groups/",
					"host": [
						"localhost"
					],
					"port": "8080",
					"path": [
						"groups",
						""
					]
				}
			},
			"response": []
		},
		{
			"name": "createGroup -> 415 UNSUPPORTED MEDIA TYPE (XML)",
			"event": [
				{
					"listen": "test",
					"script": {
						"id": "15a4465d-41c0-4ec7-8d74-68d773e21473",
						"exec": [
							"//Response Schema",
							"",
							"const schema = {",
							"    \"type\": \"object\",",
							"    \"properties\": {",
							"        \"status\": { \"type\": \"string\" },",
							"        \"message\": { \"type\": \"string\" },",
							"        \"errors\": {",
							"            \"type\": \"array\",",
							"            \"minItems\": 1,",
							"            \"maxItems\": 1,",
							"            \"items\": {",
							"                \"type\": \"string\"",
							"            }",
							"",
							"        }",
							"    }, \"required\": [\"status\", \"message\", \"errors\"]",
							"};",
							"",
							"",
							"//Test Response Schema ",
							"",
							"pm.test('Schema is valid', () => {",
							"",
							"    pm.response.to.have.jsonSchema(schema);",
							"",
							"});",
							"",
							"//Test Response Body",
							"",
							"pm.test(\"Response Body\", function () {",
							"    var jsonData = pm.response.json();",
							"    pm.expect(jsonData.status).to.eql(\"UNSUPPORTED_MEDIA_TYPE\");",
							"    pm.expect(jsonData.message).to.eql(\"Content type 'application/xml;charset=UTF-8' not supported\");",
							"",
							"    pm.expect(jsonData.errors[0]).to.eql(\"application/xml;charset=UTF-8 media type is not supported. Supported media types are application/hal+json, application/json, application/octet-stream, application/xml, application/x-www-form-urlencoded, application/*+json, text/plain, text/xml, application/*+xml, multipart/form-data, multipart/mixed, */*\");",
							"});",
							""
						],
						"type": "text/javascript"
					}
				}
			],
			"request": {
				"method": "POST",
				"header": [],
				"body": {
					"mode": "raw",
					"raw": "{\n    \"email\": \"rita@gmail.com\",\n    \"denomination\": \"Old Friends\",\n    \"description\": \"Old friends from school\"\n}",
					"options": {
						"raw": {
							"language": "xml"
						}
					}
				},
				"url": {
					"raw": "localhost:8080/groups/",
					"host": [
						"localhost"
					],
					"port": "8080",
					"path": [
						"groups",
						""
					]
				}
			},
			"response": []
		},
		{
			"name": "createGroup -> 404 NOT FOUND (group)",
			"event": [
				{
					"listen": "test",
					"script": {
						"id": "15a4465d-41c0-4ec7-8d74-68d773e21473",
						"exec": [
							"//Response Schema",
							"",
							"const schema = {",
							"    \"type\": \"object\",",
							"    \"properties\": {",
							"        \"timestamp\": { \"type\": \"string\" },",
							"        \"status\": { \"type\": \"number\" },",
							"        \"error\": { \"type\": \"string\" },",
							"        \"message\": { \"type\": \"string\" },",
							"        \"path\": { \"type\": \"string\" }",
							"        ",
							"    }, \"required\": [\"timestamp\", \"status\", \"error\", \"message\", \"path\"]",
							"};",
							"",
							"",
							"//Test Response Schema ",
							"",
							"pm.test('Schema is valid', () => {",
							"",
							"    pm.response.to.have.jsonSchema(schema);",
							"",
							"});",
							"",
							"//Test Response Body",
							"",
							"pm.test(\"Response Body\", function () {",
							"    var jsonData = pm.response.json();",
							"    pm.expect(jsonData.status).to.eql(404);",
							"    pm.expect(jsonData.error).to.eql(\"Not Found\");",
							"    pm.expect(jsonData.message).to.eql(\"No message available\");",
							"    pm.expect(jsonData.path).to.eql(\"/group/\");",
							"});"
						],
						"type": "text/javascript"
					}
				}
			],
			"request": {
				"method": "POST",
				"header": [],
				"body": {
					"mode": "raw",
					"raw": "{\n    \"email\": \"rita@gmail.com\",\n    \"denomination\": \"Old Friends\",\n    \"description\": \"Old friends from school\"\n}",
					"options": {
						"raw": {
							"language": "json"
						}
					}
				},
				"url": {
					"raw": "localhost:8080/group/",
					"host": [
						"localhost"
					],
					"port": "8080",
					"path": [
						"group",
						""
					]
				}
			},
			"response": []
		}
	],
	"event": [
		{
			"listen": "prerequest",
			"script": {
				"id": "679f6e64-079b-45a7-9f6b-96eae4d05016",
				"type": "text/javascript",
				"exec": [
					""
				]
			}
		},
		{
			"listen": "test",
			"script": {
				"id": "5d0614f8-c502-433a-8212-f45daa284556",
				"type": "text/javascript",
				"exec": [
					""
				]
			}
		}
	],
	"protocolProfileBehavior": {}
}